[
{
    "model": "lawbook.section",
    "pk": 130,
    "fields": {
        "section": "400.0",
        "title": "ISKCON Ministries and committees"
    }
},
{
    "model": "lawbook.section",
    "pk": 131,
    "fields": {
        "section": "100.0",
        "title": "Srila Prabhupada"
    }
},
{
    "model": "lawbook.section",
    "pk": 132,
    "fields": {
        "section": "101.0",
        "title": "Use of titles"
    }
},
{
    "model": "lawbook.section",
    "pk": 133,
    "fields": {
        "section": "102.0",
        "title": "Shrines and memorials"
    }
},
{
    "model": "lawbook.section",
    "pk": 134,
    "fields": {
        "section": "103.0",
        "title": "Plaques"
    }
},
{
    "model": "lawbook.section",
    "pk": 138,
    "fields": {
        "section": "200.0",
        "title": "Governing Body Commission"
    }
},
{
    "model": "lawbook.section",
    "pk": 139,
    "fields": {
        "section": "201.0",
        "title": "GBC body"
    }
},
{
    "model": "lawbook.section",
    "pk": 140,
    "fields": {
        "section": "202.0",
        "title": "Executive Committee of the GBC body"
    }
},
{
    "model": "lawbook.section",
    "pk": 141,
    "fields": {
        "section": "300.0",
        "title": "International Society for Krsna Consciousness"
    }
},
{
    "model": "lawbook.section",
    "pk": 142,
    "fields": {
        "section": "301.0",
        "title": "ISKCON Members"
    }
},
{
    "model": "lawbook.section",
    "pk": 143,
    "fields": {
        "section": "302.0",
        "title": "Asramas (spiritual orders) in ISKCON"
    }
},
{
    "model": "lawbook.section",
    "pk": 144,
    "fields": {
        "section": "303.0",
        "title": "ISKCON - temples and affiliates"
    }
},
{
    "model": "lawbook.section",
    "pk": 145,
    "fields": {
        "section": "305.0",
        "title": "ISKCON related organizations"
    }
},
{
    "model": "lawbook.section",
    "pk": 146,
    "fields": {
        "section": "306.0",
        "title": "International projects"
    }
},
{
    "model": "lawbook.section",
    "pk": 148,
    "fields": {
        "section": "500.0",
        "title": "GBC deputies and zonal supervisors"
    }
},
{
    "model": "lawbook.section",
    "pk": 154,
    "fields": {
        "section": "600.0",
        "title": "ISKCON spiritual leadership"
    }
},
{
    "model": "lawbook.section",
    "pk": 155,
    "fields": {
        "section": "601.0",
        "title": "Legal affairs"
    }
},
{
    "model": "lawbook.section",
    "pk": 156,
    "fields": {
        "section": "602.0",
        "title": "Oath of loyalty"
    }
},
{
    "model": "lawbook.section",
    "pk": 157,
    "fields": {
        "section": "603.0",
        "title": "Discipline and conduct of ISKCON leaders"
    }
},
{
    "model": "lawbook.section",
    "pk": 158,
    "fields": {
        "section": "604.0",
        "title": "Standards and duties of spiritual leaders"
    }
},
{
    "model": "lawbook.section",
    "pk": 166,
    "fields": {
        "section": "700.0",
        "title": "Gurus and disciples"
    }
},
{
    "model": "lawbook.section",
    "pk": 167,
    "fields": {
        "section": "701.0",
        "title": "ISKCON spiritual masters"
    }
},
{
    "model": "lawbook.section",
    "pk": 168,
    "fields": {
        "section": "702.0",
        "title": "Discipleship in ISKCON"
    }
},
{
    "model": "lawbook.section",
    "pk": 171,
    "fields": {
        "section": "800.0",
        "title": "Appointments"
    }
},
{
    "model": "lawbook.section",
    "pk": 172,
    "fields": {
        "section": "801.0",
        "title": "GBC officers and members"
    }
},
{
    "model": "lawbook.section",
    "pk": 173,
    "fields": {
        "section": "802.0",
        "title": "Zonal assignments"
    }
},
{
    "model": "lawbook.section",
    "pk": 302,
    "fields": {
        "section": "204.0",
        "title": "GBC Standing committees"
    }
},
{
    "model": "lawbook.section",
    "pk": 303,
    "fields": {
        "section": "203.0",
        "title": "GBC members"
    }
},
{
    "model": "lawbook.section",
    "pk": 304,
    "fields": {
        "section": "206.0",
        "title": "Geographic area committees"
    }
},
{
    "model": "lawbook.section",
    "pk": 305,
    "fields": {
        "section": "207.0",
        "title": "GBC meetings"
    }
},
{
    "model": "lawbook.section",
    "pk": 307,
    "fields": {
        "section": "304.0",
        "title": "ISKCON immovable properties"
    }
},
{
    "model": "lawbook.section",
    "pk": 308,
    "fields": {
        "section": "401.0",
        "title": "GBC Minsters"
    }
},
{
    "model": "lawbook.section",
    "pk": 309,
    "fields": {
        "section": "402.0",
        "title": "Preaching vision and goals for ISKCON in relation to ISKCON Ministries"
    }
},
{
    "model": "lawbook.section",
    "pk": 310,
    "fields": {
        "section": "403.0",
        "title": "ISKCON Deity Worship Ministry"
    }
},
{
    "model": "lawbook.section",
    "pk": 311,
    "fields": {
        "section": "404.0",
        "title": "Ministry of Education"
    }
},
{
    "model": "lawbook.section",
    "pk": 312,
    "fields": {
        "section": "405.0",
        "title": "Ministry of Book Distribution"
    }
},
{
    "model": "lawbook.section",
    "pk": 313,
    "fields": {
        "section": "406.0",
        "title": "Congregational Development Ministry"
    }
},
{
    "model": "lawbook.section",
    "pk": 314,
    "fields": {
        "section": "407.0",
        "title": "Ministry of Justice"
    }
},
{
    "model": "lawbook.section",
    "pk": 315,
    "fields": {
        "section": "408.0",
        "title": "Ministry of Justice: ISKCON Dispute Resolution Office"
    }
},
{
    "model": "lawbook.section",
    "pk": 316,
    "fields": {
        "section": "409.0",
        "title": "Ministry of Fund Development"
    }
},
{
    "model": "lawbook.section",
    "pk": 317,
    "fields": {
        "section": "410.0",
        "title": "Ministry of Health and Welfare"
    }
},
{
    "model": "lawbook.section",
    "pk": 318,
    "fields": {
        "section": "411.0",
        "title": "Ministry of Cow Protection and Agriculture"
    }
},
{
    "model": "lawbook.section",
    "pk": 319,
    "fields": {
        "section": "412.0",
        "title": "ISKCON Youth Ministry"
    }
},
{
    "model": "lawbook.section",
    "pk": 320,
    "fields": {
        "section": "413.0",
        "title": "Ministry of Communications"
    }
},
{
    "model": "lawbook.section",
    "pk": 321,
    "fields": {
        "section": "414.0",
        "title": "Ministry of Padayatra"
    }
},
{
    "model": "lawbook.section",
    "pk": 322,
    "fields": {
        "section": "415.0",
        "title": "Ministry of Sannyasa Services"
    }
},
{
    "model": "lawbook.section",
    "pk": 323,
    "fields": {
        "section": "416.0",
        "title": "Vaisnavi Ministry"
    }
},
{
    "model": "lawbook.section",
    "pk": 324,
    "fields": {
        "section": "417.0",
        "title": "Other Ministries"
    }
},
{
    "model": "lawbook.section",
    "pk": 325,
    "fields": {
        "section": "805.0",
        "title": "Appointment of deputies"
    }
},
{
    "model": "lawbook.section",
    "pk": 326,
    "fields": {
        "section": "806.0",
        "title": "Appointment of auditor"
    }
},
{
    "model": "lawbook.section",
    "pk": 327,
    "fields": {
        "section": "807.0",
        "title": "Appointment of zonal supervisors"
    }
},
{
    "model": "lawbook.section",
    "pk": 328,
    "fields": {
        "section": "900.0",
        "title": "Finances"
    }
},
{
    "model": "lawbook.section",
    "pk": 329,
    "fields": {
        "section": "901.0",
        "title": "Budget"
    }
},
{
    "model": "lawbook.section",
    "pk": 330,
    "fields": {
        "section": "902.0",
        "title": "Annual personal financial reporting"
    }
},
{
    "model": "lawbook.section",
    "pk": 331,
    "fields": {
        "section": "803.0",
        "title": "Sannyasa waiting list and initiation"
    }
},
{
    "model": "lawbook.section",
    "pk": 332,
    "fields": {
        "section": "804.0",
        "title": "Reaffirmation of Ministries and Standing Committees"
    }
},
{
    "model": "lawbook.section",
    "pk": 334,
    "fields": {
        "section": "207.1",
        "title": "Annual general meeting"
    }
},
{
    "model": "lawbook.section",
    "pk": 335,
    "fields": {
        "section": "207.2",
        "title": "Mid-term meeting"
    }
},
{
    "model": "lawbook.section",
    "pk": 336,
    "fields": {
        "section": "208.1",
        "title": "Zonal configuration for Russia"
    }
},
{
    "model": "lawbook.section",
    "pk": 337,
    "fields": {
        "section": "301.6",
        "title": "General guidelines: Improving Sanskrit pronunciation in ISKCON"
    }
},
{
    "model": "lawbook.section",
    "pk": 339,
    "fields": {
        "section": "306.3",
        "title": "BBT funding for Temple of Vedic Planetarium (TOVP)"
    }
},
{
    "model": "lawbook.section",
    "pk": 340,
    "fields": {
        "section": "306.6",
        "title": "Mayapur Retirement Village"
    }
},
{
    "model": "lawbook.section",
    "pk": 341,
    "fields": {
        "section": "418.0",
        "title": "Sastric Advisory Council"
    }
},
{
    "model": "lawbook.section",
    "pk": 342,
    "fields": {
        "section": "420.1",
        "title": "Daivi-varnasrama Research Committee"
    }
},
{
    "model": "lawbook.section",
    "pk": 343,
    "fields": {
        "section": "501.0",
        "title": "GBC deputies"
    }
},
{
    "model": "lawbook.section",
    "pk": 344,
    "fields": {
        "section": "501.1",
        "title": "Definition"
    }
},
{
    "model": "lawbook.section",
    "pk": 345,
    "fields": {
        "section": "501.2",
        "title": "Duties"
    }
},
{
    "model": "lawbook.section",
    "pk": 346,
    "fields": {
        "section": "501.3",
        "title": "Functions"
    }
},
{
    "model": "lawbook.section",
    "pk": 347,
    "fields": {
        "section": "502.0",
        "title": "Zonal supervisors"
    }
},
{
    "model": "lawbook.section",
    "pk": 349,
    "fields": {
        "section": "300.3",
        "title": "ISKCON's 50th anniversary"
    }
},
{
    "model": "lawbook.section",
    "pk": 350,
    "fields": {
        "section": "405.1",
        "title": "Plans for increasing book distribution"
    }
},
{
    "model": "lawbook.section",
    "pk": 351,
    "fields": {
        "section": "301.3",
        "title": "General membership"
    }
},
{
    "model": "lawbook.section",
    "pk": 352,
    "fields": {
        "section": "100.2",
        "title": "Principles: Recognition of Srila Prabhupada's position as Founder-Acarya of ISKCON"
    }
},
{
    "model": "lawbook.section",
    "pk": 353,
    "fields": {
        "section": "100.2",
        "title": "Principles: The significance of Srila Prabhupada to ISKCON"
    }
},
{
    "model": "lawbook.section",
    "pk": 354,
    "fields": {
        "section": "303.3",
        "title": "Guidelines: sound systems guideline"
    }
},
{
    "model": "lawbook.section",
    "pk": 355,
    "fields": {
        "section": "1000.0",
        "title": "Appendices"
    }
},
{
    "model": "lawbook.section",
    "pk": 356,
    "fields": {
        "section": "1001.0",
        "title": "Letters of appreciation"
    }
},
{
    "model": "lawbook.section",
    "pk": 357,
    "fields": {
        "section": "419.0",
        "title": "ISKCON Central Office of Child Protection"
    }
},
{
    "model": "lawbook.section",
    "pk": 358,
    "fields": {
        "section": "420.2",
        "title": "BBT Construction Grant Allocation Committee (BBTCG)"
    }
},
{
    "model": "lawbook.section",
    "pk": 359,
    "fields": {
        "section": "420.3",
        "title": "GBC Appointment Committee"
    }
},
{
    "model": "lawbook.section",
    "pk": 360,
    "fields": {
        "section": "420.4",
        "title": "GBC-BBT Team"
    }
},
{
    "model": "lawbook.section",
    "pk": 361,
    "fields": {
        "section": "420.5",
        "title": "GBC Vaisnava Calendar Committee"
    }
},
{
    "model": "lawbook.section",
    "pk": 362,
    "fields": {
        "section": "420.6",
        "title": "Guru Services Committee"
    }
},
{
    "model": "lawbook.section",
    "pk": 363,
    "fields": {
        "section": "420.7",
        "title": "ISKCON Property Office"
    }
},
{
    "model": "lawbook.section",
    "pk": 364,
    "fields": {
        "section": "420.8",
        "title": "Vrindavan Samadhi Standing Committee"
    }
},
{
    "model": "lawbook.section",
    "pk": 365,
    "fields": {
        "section": "420.9",
        "title": "World Holy Name Week Committee"
    }
},
{
    "model": "lawbook.section",
    "pk": 366,
    "fields": {
        "section": "205.0",
        "title": "Other GBC affiliated organizations"
    }
},
{
    "model": "lawbook.section",
    "pk": 367,
    "fields": {
        "section": "208.0",
        "title": "GBC zones & zonal configuration"
    }
},
{
    "model": "lawbook.section",
    "pk": 368,
    "fields": {
        "section": "205.1",
        "title": "GBC College for Leadership Development"
    }
},
{
    "model": "lawbook.section",
    "pk": 369,
    "fields": {
        "section": "205.2",
        "title": "GBC Division of legal, accounting and regulatory compliance"
    }
},
{
    "model": "lawbook.section",
    "pk": 370,
    "fields": {
        "section": "420.0",
        "title": "Other committees"
    }
}
]
