[
{
    "model": "taggit.tag",
    "pk": 2,
    "fields": {
        "name": "deity worship",
        "slug": "deity-worship"
    }
},
{
    "model": "taggit.tag",
    "pk": 5,
    "fields": {
        "name": "education",
        "slug": "education"
    }
},
{
    "model": "taggit.tag",
    "pk": 7,
    "fields": {
        "name": "book distribution",
        "slug": "book-distribution"
    }
},
{
    "model": "taggit.tag",
    "pk": 8,
    "fields": {
        "name": "ministers",
        "slug": "ministers"
    }
},
{
    "model": "taggit.tag",
    "pk": 9,
    "fields": {
        "name": "deputy",
        "slug": "deputy"
    }
},
{
    "model": "taggit.tag",
    "pk": 10,
    "fields": {
        "name": "guru/disciple",
        "slug": "guru-disciple"
    }
},
{
    "model": "taggit.tag",
    "pk": 11,
    "fields": {
        "name": "outreach",
        "slug": "outreach"
    }
},
{
    "model": "taggit.tag",
    "pk": 12,
    "fields": {
        "name": "Mayapur",
        "slug": "mayapur"
    }
},
{
    "model": "taggit.tag",
    "pk": 14,
    "fields": {
        "name": "financial",
        "slug": "financial"
    }
},
{
    "model": "taggit.tag",
    "pk": 15,
    "fields": {
        "name": "internal iskcon",
        "slug": "internal-iskcon"
    }
},
{
    "model": "taggit.tag",
    "pk": 16,
    "fields": {
        "name": "preaching",
        "slug": "preaching"
    }
},
{
    "model": "taggit.tag",
    "pk": 20,
    "fields": {
        "name": "ISKCON law",
        "slug": "iskcon-law"
    }
},
{
    "model": "taggit.tag",
    "pk": 23,
    "fields": {
        "name": "communications",
        "slug": "communications"
    }
},
{
    "model": "taggit.tag",
    "pk": 24,
    "fields": {
        "name": "global",
        "slug": "global"
    }
},
{
    "model": "taggit.tag",
    "pk": 44,
    "fields": {
        "name": "leadership",
        "slug": "leadership"
    }
},
{
    "model": "taggit.tag",
    "pk": 45,
    "fields": {
        "name": "ISKCON members",
        "slug": "iskcon-members"
    }
},
{
    "model": "taggit.tag",
    "pk": 51,
    "fields": {
        "name": "national",
        "slug": "national"
    }
},
{
    "model": "taggit.tag",
    "pk": 62,
    "fields": {
        "name": "temples",
        "slug": "temple"
    }
},
{
    "model": "taggit.tag",
    "pk": 72,
    "fields": {
        "name": "funding",
        "slug": "funding"
    }
},
{
    "model": "taggit.tag",
    "pk": 76,
    "fields": {
        "name": "regional governing bodies",
        "slug": "regional-governing-bodies"
    }
},
{
    "model": "taggit.tag",
    "pk": 82,
    "fields": {
        "name": "gita nagari",
        "slug": "gita-nagari"
    }
},
{
    "model": "taggit.tag",
    "pk": 92,
    "fields": {
        "name": "bhakti sastri",
        "slug": "bhakti-sastri"
    }
},
{
    "model": "taggit.tag",
    "pk": 148,
    "fields": {
        "name": "cow protection",
        "slug": "cow-protection"
    }
},
{
    "model": "taggit.tag",
    "pk": 149,
    "fields": {
        "name": "agriculture",
        "slug": "agriculture"
    }
},
{
    "model": "taggit.tag",
    "pk": 151,
    "fields": {
        "name": "India",
        "slug": "india"
    }
},
{
    "model": "taggit.tag",
    "pk": 152,
    "fields": {
        "name": "life members",
        "slug": "life-members"
    }
},
{
    "model": "taggit.tag",
    "pk": 153,
    "fields": {
        "name": "initiation",
        "slug": "initiation"
    }
},
{
    "model": "taggit.tag",
    "pk": 154,
    "fields": {
        "name": "proposals",
        "slug": "proposals"
    }
},
{
    "model": "taggit.tag",
    "pk": 155,
    "fields": {
        "name": "procedural questions",
        "slug": "procedural-questions"
    }
},
{
    "model": "taggit.tag",
    "pk": 158,
    "fields": {
        "name": "GBC College for Leadership Development",
        "slug": "gbc-college-for-leadership-development"
    }
},
{
    "model": "taggit.tag",
    "pk": 159,
    "fields": {
        "name": "GBC College",
        "slug": "gbc-college"
    }
},
{
    "model": "taggit.tag",
    "pk": 162,
    "fields": {
        "name": "GBC",
        "slug": "gbc_1"
    }
},
{
    "model": "taggit.tag",
    "pk": 163,
    "fields": {
        "name": "Zonal configuration",
        "slug": "zonal-configuration"
    }
},
{
    "model": "taggit.tag",
    "pk": 164,
    "fields": {
        "name": "Officers and members",
        "slug": "officers-and-members"
    }
},
{
    "model": "taggit.tag",
    "pk": 168,
    "fields": {
        "name": "Ministries",
        "slug": "ministries_1"
    }
},
{
    "model": "taggit.tag",
    "pk": 169,
    "fields": {
        "name": "Standing committees",
        "slug": "standing-committees"
    }
},
{
    "model": "taggit.tag",
    "pk": 170,
    "fields": {
        "name": "Budget",
        "slug": "budget"
    }
},
{
    "model": "taggit.tag",
    "pk": 171,
    "fields": {
        "name": "GBC budget",
        "slug": "gbc-budget"
    }
},
{
    "model": "taggit.tag",
    "pk": 172,
    "fields": {
        "name": "Meetings",
        "slug": "meetings"
    }
},
{
    "model": "taggit.tag",
    "pk": 173,
    "fields": {
        "name": "GBC meetings",
        "slug": "gbc-meetings"
    }
},
{
    "model": "taggit.tag",
    "pk": 174,
    "fields": {
        "name": "Mid-term meeting",
        "slug": "mid-term-meeting"
    }
},
{
    "model": "taggit.tag",
    "pk": 175,
    "fields": {
        "name": "AGM",
        "slug": "agm"
    }
},
{
    "model": "taggit.tag",
    "pk": 176,
    "fields": {
        "name": "Annual General Meeting",
        "slug": "annual-general-meeting"
    }
},
{
    "model": "taggit.tag",
    "pk": 177,
    "fields": {
        "name": "Rupanuga dasa",
        "slug": "rupanuga-dasa"
    }
},
{
    "model": "taggit.tag",
    "pk": 178,
    "fields": {
        "name": "Praghosa dasa",
        "slug": "praghosa-dasa"
    }
},
{
    "model": "taggit.tag",
    "pk": 180,
    "fields": {
        "name": "Chairman",
        "slug": "chairman_1"
    }
},
{
    "model": "taggit.tag",
    "pk": 181,
    "fields": {
        "name": "Sesa dasa",
        "slug": "sesa-dasa"
    }
},
{
    "model": "taggit.tag",
    "pk": 182,
    "fields": {
        "name": "Bhakti Charu Swami",
        "slug": "bhakti-charu-swami"
    }
},
{
    "model": "taggit.tag",
    "pk": 185,
    "fields": {
        "name": "Appointments",
        "slug": "appointments_1"
    }
},
{
    "model": "taggit.tag",
    "pk": 186,
    "fields": {
        "name": "Bhakti Purusottama Swami",
        "slug": "bhakti-purusottama-swami"
    }
},
{
    "model": "taggit.tag",
    "pk": 187,
    "fields": {
        "name": "Secretary",
        "slug": "secretary"
    }
},
{
    "model": "taggit.tag",
    "pk": 189,
    "fields": {
        "name": "GBC members",
        "slug": "gbc-members_1"
    }
},
{
    "model": "taggit.tag",
    "pk": 190,
    "fields": {
        "name": "Candrasekhara Acarya dasa",
        "slug": "candrasekhara-acarya-dasa"
    }
},
{
    "model": "taggit.tag",
    "pk": 191,
    "fields": {
        "name": "Acting GBC",
        "slug": "acting-gbc"
    }
},
{
    "model": "taggit.tag",
    "pk": 192,
    "fields": {
        "name": "Prahladananda Swami",
        "slug": "prahladananda-swami"
    }
},
{
    "model": "taggit.tag",
    "pk": 193,
    "fields": {
        "name": "Revati Raman dasa",
        "slug": "revati-raman-dasa"
    }
},
{
    "model": "taggit.tag",
    "pk": 194,
    "fields": {
        "name": "Assistant GBC",
        "slug": "assistant-gbc"
    }
},
{
    "model": "taggit.tag",
    "pk": 195,
    "fields": {
        "name": "GBC Candidate",
        "slug": "gbc-candidate"
    }
},
{
    "model": "taggit.tag",
    "pk": 196,
    "fields": {
        "name": "Tirtharaj dasa",
        "slug": "tirtharaj-dasa"
    }
},
{
    "model": "taggit.tag",
    "pk": 197,
    "fields": {
        "name": "Bhanu Swami",
        "slug": "bhanu-swami"
    }
},
{
    "model": "taggit.tag",
    "pk": 198,
    "fields": {
        "name": "Ramai Swami",
        "slug": "ramai-swami"
    }
},
{
    "model": "taggit.tag",
    "pk": 199,
    "fields": {
        "name": "Kavicandra Swami",
        "slug": "kavicandra-swami"
    }
},
{
    "model": "taggit.tag",
    "pk": 200,
    "fields": {
        "name": "Appointment",
        "slug": "appointment"
    }
},
{
    "model": "taggit.tag",
    "pk": 201,
    "fields": {
        "name": "Special Duty Officer",
        "slug": "special-duty-officer"
    }
},
{
    "model": "taggit.tag",
    "pk": 202,
    "fields": {
        "name": "Madhu Sevita dasa",
        "slug": "madhu-sevita-dasa"
    }
},
{
    "model": "taggit.tag",
    "pk": 203,
    "fields": {
        "name": "Romapada Swami",
        "slug": "romapada-swami"
    }
},
{
    "model": "taggit.tag",
    "pk": 204,
    "fields": {
        "name": "Adi Purusa dasa",
        "slug": "adi-purusa-dasa"
    }
},
{
    "model": "taggit.tag",
    "pk": 206,
    "fields": {
        "name": "Sannyasa",
        "slug": "sannyasa_1"
    }
},
{
    "model": "taggit.tag",
    "pk": 207,
    "fields": {
        "name": "Sannyasa waiting list",
        "slug": "sannyasa-waiting-list"
    }
},
{
    "model": "taggit.tag",
    "pk": 208,
    "fields": {
        "name": "Waiting list",
        "slug": "waiting-list"
    }
},
{
    "model": "taggit.tag",
    "pk": 209,
    "fields": {
        "name": "Adwaitacharya dasa",
        "slug": "adwaitacharya-dasa"
    }
},
{
    "model": "taggit.tag",
    "pk": 210,
    "fields": {
        "name": "Agnideva dasa",
        "slug": "agnideva-dasa"
    }
},
{
    "model": "taggit.tag",
    "pk": 211,
    "fields": {
        "name": "Akincana dasa",
        "slug": "akincana-dasa"
    }
},
{
    "model": "taggit.tag",
    "pk": 212,
    "fields": {
        "name": "Amala Bhakta dasa",
        "slug": "amala-bhakta-dasa"
    }
},
{
    "model": "taggit.tag",
    "pk": 213,
    "fields": {
        "name": "Ambarish dasa",
        "slug": "ambarish-dasa"
    }
},
{
    "model": "taggit.tag",
    "pk": 214,
    "fields": {
        "name": "Ananda Caitanya dasa",
        "slug": "ananda-caitanya-dasa"
    }
},
{
    "model": "taggit.tag",
    "pk": 215,
    "fields": {
        "name": "Ananda Vardhana dasa",
        "slug": "ananda-vardhana-dasa"
    }
},
{
    "model": "taggit.tag",
    "pk": 216,
    "fields": {
        "name": "Asit Krsna dasa",
        "slug": "asit-krsna-dasa"
    }
},
{
    "model": "taggit.tag",
    "pk": 217,
    "fields": {
        "name": "Bhaktipada dasa",
        "slug": "bhaktipada-dasa"
    }
},
{
    "model": "taggit.tag",
    "pk": 218,
    "fields": {
        "name": "Carudesna dasa",
        "slug": "carudesna-dasa"
    }
},
{
    "model": "taggit.tag",
    "pk": 219,
    "fields": {
        "name": "Dayavan dasa",
        "slug": "dayavan-dasa"
    }
},
{
    "model": "taggit.tag",
    "pk": 220,
    "fields": {
        "name": "Deva Deva dasa",
        "slug": "deva-deva-dasa"
    }
},
{
    "model": "taggit.tag",
    "pk": 221,
    "fields": {
        "name": "Dhirasanta dasa",
        "slug": "dhirasanta-dasa"
    }
},
{
    "model": "taggit.tag",
    "pk": 223,
    "fields": {
        "name": "Ekalavya dasa",
        "slug": "ekalavya-dasa"
    }
},
{
    "model": "taggit.tag",
    "pk": 224,
    "fields": {
        "name": "Ganga Narayana dasa",
        "slug": "ganga-narayana-dasa"
    }
},
{
    "model": "taggit.tag",
    "pk": 225,
    "fields": {
        "name": "Gaura Chandra dasa",
        "slug": "gaura-chandra-dasa"
    }
},
{
    "model": "taggit.tag",
    "pk": 226,
    "fields": {
        "name": "Gaura Krishna dasa",
        "slug": "gaura-krishna-dasa"
    }
},
{
    "model": "taggit.tag",
    "pk": 227,
    "fields": {
        "name": "Halayudha dasa",
        "slug": "halayudha-dasa"
    }
},
{
    "model": "taggit.tag",
    "pk": 228,
    "fields": {
        "name": "Hari dasa",
        "slug": "hari-dasa"
    }
},
{
    "model": "taggit.tag",
    "pk": 229,
    "fields": {
        "name": "Hari Vilas dasa",
        "slug": "hari-vilas-dasa"
    }
},
{
    "model": "taggit.tag",
    "pk": 230,
    "fields": {
        "name": "Lilasuka dasa",
        "slug": "lilasuka-dasa"
    }
},
{
    "model": "taggit.tag",
    "pk": 231,
    "fields": {
        "name": "Mahadyuti dasa",
        "slug": "mahadyuti-dasa"
    }
},
{
    "model": "taggit.tag",
    "pk": 232,
    "fields": {
        "name": "Mahat Tattva dasa",
        "slug": "mahat-tattva-dasa"
    }
},
{
    "model": "taggit.tag",
    "pk": 233,
    "fields": {
        "name": "Mahaprabhu dasa",
        "slug": "mahaprabhu-dasa"
    }
},
{
    "model": "taggit.tag",
    "pk": 235,
    "fields": {
        "name": "Vishvavasu dasa",
        "slug": "vishvavasu-dasa"
    }
},
{
    "model": "taggit.tag",
    "pk": 236,
    "fields": {
        "name": "Yamunacarya dasa",
        "slug": "yamunacarya-dasa"
    }
},
{
    "model": "taggit.tag",
    "pk": 237,
    "fields": {
        "name": "Rupa Raghunatha dasa",
        "slug": "rupa-raghunatha-dasa"
    }
},
{
    "model": "taggit.tag",
    "pk": 238,
    "fields": {
        "name": "Priti Vardhana dasa",
        "slug": "priti-vardhana-dasa"
    }
},
{
    "model": "taggit.tag",
    "pk": 239,
    "fields": {
        "name": "Venudhari dasa",
        "slug": "venudhari-dasa"
    }
},
{
    "model": "taggit.tag",
    "pk": 240,
    "fields": {
        "name": "Nabadvip Dvija Gouranga dasa",
        "slug": "nabadvip-dvija-gouranga-dasa"
    }
},
{
    "model": "taggit.tag",
    "pk": 241,
    "fields": {
        "name": "Nitaidaya dasa",
        "slug": "nitaidaya-dasa"
    }
},
{
    "model": "taggit.tag",
    "pk": 242,
    "fields": {
        "name": "Vasudeva Datta dasa",
        "slug": "vasudeva-datta-dasa"
    }
},
{
    "model": "taggit.tag",
    "pk": 243,
    "fields": {
        "name": "Puspashila Shyam dasa",
        "slug": "puspashila-shyam-dasa"
    }
},
{
    "model": "taggit.tag",
    "pk": 244,
    "fields": {
        "name": "Raghava Pandit dasa",
        "slug": "raghava-pandit-dasa"
    }
},
{
    "model": "taggit.tag",
    "pk": 245,
    "fields": {
        "name": "Uttamasloka dasa",
        "slug": "uttamasloka-dasa"
    }
},
{
    "model": "taggit.tag",
    "pk": 246,
    "fields": {
        "name": "Sankirtan dasa",
        "slug": "sankirtan-dasa"
    }
},
{
    "model": "taggit.tag",
    "pk": 247,
    "fields": {
        "name": "Markandeya Rsi dasa",
        "slug": "markandeya-rsi-dasa"
    }
},
{
    "model": "taggit.tag",
    "pk": 248,
    "fields": {
        "name": "GBC member",
        "slug": "gbc-member"
    }
},
{
    "model": "taggit.tag",
    "pk": 250,
    "fields": {
        "name": "Vice-Chairman",
        "slug": "vice-chairman_1"
    }
},
{
    "model": "taggit.tag",
    "pk": 253,
    "fields": {
        "name": "Second Vice-Chairman",
        "slug": "second-vice-chairman"
    }
},
{
    "model": "taggit.tag",
    "pk": 255,
    "fields": {
        "name": "GBC Secretary",
        "slug": "gbc-secretary_1"
    }
},
{
    "model": "taggit.tag",
    "pk": 256,
    "fields": {
        "name": "First Vice-Chairman",
        "slug": "first-vice-chairman"
    }
},
{
    "model": "taggit.tag",
    "pk": 258,
    "fields": {
        "name": "A.C. Bhaktivaibhava Swami",
        "slug": "ac-bhaktivaibhava-swami_1"
    }
},
{
    "model": "taggit.tag",
    "pk": 259,
    "fields": {
        "name": "GBC Chairman",
        "slug": "gbc-chairman"
    }
},
{
    "model": "taggit.tag",
    "pk": 260,
    "fields": {
        "name": "Ministry of Fund Development",
        "slug": "ministry-of-fund-development"
    }
},
{
    "model": "taggit.tag",
    "pk": 261,
    "fields": {
        "name": "Govindanandana dasa",
        "slug": "govindanandana-dasa"
    }
},
{
    "model": "taggit.tag",
    "pk": 262,
    "fields": {
        "name": "ISKCON Youth Ministry",
        "slug": "iskcon-youth-ministry"
    }
},
{
    "model": "taggit.tag",
    "pk": 263,
    "fields": {
        "name": "Jayapataka Swami",
        "slug": "jayapataka-swami"
    }
},
{
    "model": "taggit.tag",
    "pk": 264,
    "fields": {
        "name": "Ministry of Health and Welfare",
        "slug": "ministry-of-health-and-welfare"
    }
},
{
    "model": "taggit.tag",
    "pk": 265,
    "fields": {
        "name": "ISKCON Deity Worship Ministry",
        "slug": "iskcon-deity-worship-ministry"
    }
},
{
    "model": "taggit.tag",
    "pk": 266,
    "fields": {
        "name": "Congregational Development Ministry",
        "slug": "congregational-development-ministry"
    }
},
{
    "model": "taggit.tag",
    "pk": 267,
    "fields": {
        "name": "Bir Krishna Dasa Goswami",
        "slug": "bir-krishna-dasa-goswami"
    }
},
{
    "model": "taggit.tag",
    "pk": 268,
    "fields": {
        "name": "Manorama dasa",
        "slug": "manorama-dasa"
    }
},
{
    "model": "taggit.tag",
    "pk": 269,
    "fields": {
        "name": "Minister",
        "slug": "minister"
    }
},
{
    "model": "taggit.tag",
    "pk": 270,
    "fields": {
        "name": "Co-Ministers",
        "slug": "co-ministers"
    }
},
{
    "model": "taggit.tag",
    "pk": 271,
    "fields": {
        "name": "Ministry of Book Distribution",
        "slug": "ministry-of-book-distribution"
    }
},
{
    "model": "taggit.tag",
    "pk": 272,
    "fields": {
        "name": "Other members",
        "slug": "other-members"
    }
},
{
    "model": "taggit.tag",
    "pk": 274,
    "fields": {
        "name": "Standing Committees",
        "slug": "standing-committees_1"
    }
},
{
    "model": "taggit.tag",
    "pk": 275,
    "fields": {
        "name": "Ministry of Education",
        "slug": "ministry-of-education"
    }
},
{
    "model": "taggit.tag",
    "pk": 276,
    "fields": {
        "name": "Devakinandan dasa",
        "slug": "devakinandan-dasa"
    }
},
{
    "model": "taggit.tag",
    "pk": 277,
    "fields": {
        "name": "Vijaya dasa",
        "slug": "vijaya-dasa"
    }
},
{
    "model": "taggit.tag",
    "pk": 278,
    "fields": {
        "name": "Kalakantha dasa",
        "slug": "kalakantha-dasa"
    }
},
{
    "model": "taggit.tag",
    "pk": 279,
    "fields": {
        "name": "Kaunteya dasa",
        "slug": "kaunteya-dasa"
    }
},
{
    "model": "taggit.tag",
    "pk": 280,
    "fields": {
        "name": "Anuttama dasa",
        "slug": "anuttama-dasa"
    }
},
{
    "model": "taggit.tag",
    "pk": 281,
    "fields": {
        "name": "Nrsimha Kavaca dasa",
        "slug": "nrsimha-kavaca-dasa"
    }
},
{
    "model": "taggit.tag",
    "pk": 282,
    "fields": {
        "name": "Ministry of Cow Protection and Agriculture",
        "slug": "ministry-of-cow-protection-and-agriculture"
    }
},
{
    "model": "taggit.tag",
    "pk": 283,
    "fields": {
        "name": "Ministry of Communications",
        "slug": "ministry-of-communications"
    }
},
{
    "model": "taggit.tag",
    "pk": 284,
    "fields": {
        "name": "ISKCON Dispute Resolution Committee",
        "slug": "iskcon-dispute-resolution-committee"
    }
},
{
    "model": "taggit.tag",
    "pk": 285,
    "fields": {
        "name": "IDRC",
        "slug": "idrc"
    }
},
{
    "model": "taggit.tag",
    "pk": 286,
    "fields": {
        "name": "Ministry of Justice",
        "slug": "ministry-of-justice"
    }
},
{
    "model": "taggit.tag",
    "pk": 287,
    "fields": {
        "name": "ISKCONResolve",
        "slug": "iskconresolve"
    }
},
{
    "model": "taggit.tag",
    "pk": 288,
    "fields": {
        "name": "ISKCON Dispute Resolution Office",
        "slug": "iskcon-dispute-resolution-office"
    }
},
{
    "model": "taggit.tag",
    "pk": 289,
    "fields": {
        "name": "Jagajivan dasa",
        "slug": "jagajivan-dasa"
    }
},
{
    "model": "taggit.tag",
    "pk": 290,
    "fields": {
        "name": "Ministry of Justice: ISKCON Dispute Resolution Office",
        "slug": "ministry-of-justice-iskcon-dispute-resolution-office"
    }
},
{
    "model": "taggit.tag",
    "pk": 291,
    "fields": {
        "name": "Ministry of Padayatra",
        "slug": "ministry-of-padayatra"
    }
},
{
    "model": "taggit.tag",
    "pk": 292,
    "fields": {
        "name": "Lokanath Swami",
        "slug": "lokanath-swami"
    }
},
{
    "model": "taggit.tag",
    "pk": 293,
    "fields": {
        "name": "Ministry of Sannyasa Services",
        "slug": "ministry-of-sannyasa-services"
    }
},
{
    "model": "taggit.tag",
    "pk": 294,
    "fields": {
        "name": "Sivarama Swami",
        "slug": "sivarama-swami"
    }
},
{
    "model": "taggit.tag",
    "pk": 295,
    "fields": {
        "name": "Bhaktivaibhava Swami",
        "slug": "bhaktivaibhava-swami"
    }
},
{
    "model": "taggit.tag",
    "pk": 296,
    "fields": {
        "name": "Guru Prasad Swami",
        "slug": "guru-prasad-swami"
    }
},
{
    "model": "taggit.tag",
    "pk": 297,
    "fields": {
        "name": "Bhakti Caitanya Swami",
        "slug": "bhakti-caitanya-swami"
    }
},
{
    "model": "taggit.tag",
    "pk": 298,
    "fields": {
        "name": "Hrdaya Caitanya dasa",
        "slug": "hrdaya-caitanya-dasa"
    }
},
{
    "model": "taggit.tag",
    "pk": 299,
    "fields": {
        "name": "Malati dasi",
        "slug": "malati-dasi"
    }
},
{
    "model": "taggit.tag",
    "pk": 300,
    "fields": {
        "name": "Dina Sharana dasi",
        "slug": "dina-sharana-dasi"
    }
},
{
    "model": "taggit.tag",
    "pk": 301,
    "fields": {
        "name": "BBT Construction Grant Allocation Committee (BBTCG)",
        "slug": "bbt-construction-grant-allocation-committee-bbtcg"
    }
},
{
    "model": "taggit.tag",
    "pk": 302,
    "fields": {
        "name": "Laxmimoni dasi",
        "slug": "laxmimoni-dasi"
    }
},
{
    "model": "taggit.tag",
    "pk": 303,
    "fields": {
        "name": "Vaisnavi Ministry",
        "slug": "vaisnavi-ministry"
    }
},
{
    "model": "taggit.tag",
    "pk": 304,
    "fields": {
        "name": "Badrinarayan Swami",
        "slug": "badrinarayan-swami"
    }
},
{
    "model": "taggit.tag",
    "pk": 305,
    "fields": {
        "name": "Bhakti Vijnana Swami",
        "slug": "bhakti-vijnana-swami"
    }
},
{
    "model": "taggit.tag",
    "pk": 306,
    "fields": {
        "name": "Guru Services Committee",
        "slug": "guru-services-committee"
    }
},
{
    "model": "taggit.tag",
    "pk": 307,
    "fields": {
        "name": "Devamrita Swami",
        "slug": "devamrita-swami"
    }
},
{
    "model": "taggit.tag",
    "pk": 308,
    "fields": {
        "name": "GBC Vaisnava Calendar Committee",
        "slug": "gbc-vaisnava-calendar-committee"
    }
},
{
    "model": "taggit.tag",
    "pk": 309,
    "fields": {
        "name": "Prasanta dasi",
        "slug": "prasanta-dasi"
    }
},
{
    "model": "taggit.tag",
    "pk": 310,
    "fields": {
        "name": "GBC-BBT Team",
        "slug": "gbc-bbt-team"
    }
},
{
    "model": "taggit.tag",
    "pk": 311,
    "fields": {
        "name": "Gopal Krishna Goswami",
        "slug": "gopal-krishna-goswami"
    }
},
{
    "model": "taggit.tag",
    "pk": 312,
    "fields": {
        "name": "Tamohara dasa",
        "slug": "tamohara-dasa"
    }
},
{
    "model": "taggit.tag",
    "pk": 313,
    "fields": {
        "name": "Drutakarma dasa",
        "slug": "drutakarma-dasa"
    }
},
{
    "model": "taggit.tag",
    "pk": 314,
    "fields": {
        "name": "Narayani dasi",
        "slug": "narayani-dasi"
    }
},
{
    "model": "taggit.tag",
    "pk": 316,
    "fields": {
        "name": "Adi-purusa dasa",
        "slug": "adi-purusa-dasa_1"
    }
},
{
    "model": "taggit.tag",
    "pk": 317,
    "fields": {
        "name": "Gopalapriya dasa",
        "slug": "gopalapriya-dasa"
    }
},
{
    "model": "taggit.tag",
    "pk": 318,
    "fields": {
        "name": "Brijbasi dasa",
        "slug": "brijbasi-dasa"
    }
},
{
    "model": "taggit.tag",
    "pk": 319,
    "fields": {
        "name": "Madana-Mohana dasa",
        "slug": "madana-mohana-dasa"
    }
},
{
    "model": "taggit.tag",
    "pk": 320,
    "fields": {
        "name": "Sastric Advisory Council",
        "slug": "sastric-advisory-council"
    }
},
{
    "model": "taggit.tag",
    "pk": 321,
    "fields": {
        "name": "Vinoda-bihari dasa",
        "slug": "vinoda-bihari-dasa"
    }
},
{
    "model": "taggit.tag",
    "pk": 322,
    "fields": {
        "name": "Janananda Goswami",
        "slug": "janananda-goswami"
    }
},
{
    "model": "taggit.tag",
    "pk": 323,
    "fields": {
        "name": "GBC Appointment Committee",
        "slug": "gbc-appointment-committee"
    }
},
{
    "model": "taggit.tag",
    "pk": 324,
    "fields": {
        "name": "Satyanarayana dasa",
        "slug": "satyanarayana-dasa"
    }
},
{
    "model": "taggit.tag",
    "pk": 325,
    "fields": {
        "name": "ISKCON Central Office of Child Protection",
        "slug": "iskcon-central-office-of-child-protection"
    }
},
{
    "model": "taggit.tag",
    "pk": 326,
    "fields": {
        "name": "Vrindavan Samadhi Standing Committee",
        "slug": "vrindavan-samadhi-standing-committee"
    }
},
{
    "model": "taggit.tag",
    "pk": 327,
    "fields": {
        "name": "Naresvara dasa",
        "slug": "naresvara-dasa"
    }
},
{
    "model": "taggit.tag",
    "pk": 328,
    "fields": {
        "name": "Kuladri dasa",
        "slug": "kuladri-dasa"
    }
},
{
    "model": "taggit.tag",
    "pk": 329,
    "fields": {
        "name": "World Holy Name Week Committee",
        "slug": "world-holy-name-week-committee"
    }
},
{
    "model": "taggit.tag",
    "pk": 330,
    "fields": {
        "name": "Sadasivananda dasa",
        "slug": "sadasivananda-dasa"
    }
},
{
    "model": "taggit.tag",
    "pk": 331,
    "fields": {
        "name": "Urmila dasi",
        "slug": "urmila-dasi"
    }
},
{
    "model": "taggit.tag",
    "pk": 332,
    "fields": {
        "name": "Bhaktarupa dasa",
        "slug": "bhaktarupa-dasa"
    }
},
{
    "model": "taggit.tag",
    "pk": 333,
    "fields": {
        "name": "Sarvajna dasa",
        "slug": "sarvajna-dasa"
    }
},
{
    "model": "taggit.tag",
    "pk": 334,
    "fields": {
        "name": "Champakalata dasi",
        "slug": "champakalata-dasi"
    }
},
{
    "model": "taggit.tag",
    "pk": 335,
    "fields": {
        "name": "Caitanya-carana dasa",
        "slug": "caitanya-carana-dasa"
    }
},
{
    "model": "taggit.tag",
    "pk": 336,
    "fields": {
        "name": "Pancagauda dasa",
        "slug": "pancagauda-dasa"
    }
},
{
    "model": "taggit.tag",
    "pk": 337,
    "fields": {
        "name": "ISKCON Property Office",
        "slug": "iskcon-property-office"
    }
},
{
    "model": "taggit.tag",
    "pk": 338,
    "fields": {
        "name": "Shrines and memorials",
        "slug": "shrines-and-memorials"
    }
},
{
    "model": "taggit.tag",
    "pk": 339,
    "fields": {
        "name": "ISKCON Disciple Course",
        "slug": "iskcon-disciple-course"
    }
},
{
    "model": "taggit.tag",
    "pk": 340,
    "fields": {
        "name": "Regional Secretaries",
        "slug": "regional-secretaries"
    }
},
{
    "model": "taggit.tag",
    "pk": 341,
    "fields": {
        "name": "Management Council",
        "slug": "management-council"
    }
},
{
    "model": "taggit.tag",
    "pk": 342,
    "fields": {
        "name": "Regional Governing Body",
        "slug": "regional-governing-body"
    }
},
{
    "model": "taggit.tag",
    "pk": 343,
    "fields": {
        "name": "ISKCON Communications",
        "slug": "iskcon-communications"
    }
},
{
    "model": "taggit.tag",
    "pk": 344,
    "fields": {
        "name": "Zonal Secretaries",
        "slug": "zonal-secretaries"
    }
},
{
    "model": "taggit.tag",
    "pk": 345,
    "fields": {
        "name": "Divisional Councils",
        "slug": "divisional-councils"
    }
},
{
    "model": "taggit.tag",
    "pk": 346,
    "fields": {
        "name": "Executive Committee",
        "slug": "executive-committee"
    }
},
{
    "model": "taggit.tag",
    "pk": 347,
    "fields": {
        "name": "National Council",
        "slug": "national-council"
    }
},
{
    "model": "taggit.tag",
    "pk": 348,
    "fields": {
        "name": "Mayapur Institute",
        "slug": "mayapur-institute"
    }
},
{
    "model": "taggit.tag",
    "pk": 349,
    "fields": {
        "name": "ISKCON Desire Tree",
        "slug": "iskcon-desire-tree"
    }
},
{
    "model": "taggit.tag",
    "pk": 350,
    "fields": {
        "name": "Local Area Council",
        "slug": "local-area-council"
    }
},
{
    "model": "taggit.tag",
    "pk": 351,
    "fields": {
        "name": "Bhaktivedanta College",
        "slug": "bhaktivedanta-college"
    }
},
{
    "model": "taggit.tag",
    "pk": 353,
    "fields": {
        "name": "GBC candidate",
        "slug": "gbc-candidate_1"
    }
},
{
    "model": "taggit.tag",
    "pk": 354,
    "fields": {
        "name": "Mayapur West Bengal",
        "slug": "mayapur-west-bengal"
    }
},
{
    "model": "taggit.tag",
    "pk": 355,
    "fields": {
        "name": "Govardhan Eco-village India",
        "slug": "govardhan-eco-village-india"
    }
},
{
    "model": "taggit.tag",
    "pk": 356,
    "fields": {
        "name": "Juhu Mumbai India",
        "slug": "juhu-mumbai-india"
    }
},
{
    "model": "taggit.tag",
    "pk": 357,
    "fields": {
        "name": "Radhadesh Belgium",
        "slug": "radhadesh-belgium"
    }
},
{
    "model": "taggit.tag",
    "pk": 358,
    "fields": {
        "name": "Sastric Advisory Council (SAC)",
        "slug": "sastric-advisory-council-sac"
    }
},
{
    "model": "taggit.tag",
    "pk": 359,
    "fields": {
        "name": "ISKCON Central Office of Child Protection (CPO)",
        "slug": "iskcon-central-office-of-child-protection-cpo"
    }
},
{
    "model": "taggit.tag",
    "pk": 360,
    "fields": {
        "name": "Ministry of Justice: ISKCON Dispute Resolution Committee (IDRC)",
        "slug": "ministry-of-justice-iskcon-dispute-resolution-committee-idrc"
    }
}
]
